signature,file,startline,startcol,endline,endcol,properties
Lcom/android/sdksandbox/flags/FakeFeatureFlagsImpl;->firstAndLastSdkSandboxUidPublic()Z,out/soong/.intermediates/packages/modules/AdServices/sdksandbox/flags/sdk_sandbox_flags_lib/android_common_apex33/javac/srcjars/com/android/sdksandbox/flags/FakeFeatureFlagsImpl.java,19,5,19,25,
Lcom/android/sdksandbox/flags/FakeFeatureFlagsImpl;->getEffectiveTargetSdkVersionApi()Z,out/soong/.intermediates/packages/modules/AdServices/sdksandbox/flags/sdk_sandbox_flags_lib/android_common_apex33/javac/srcjars/com/android/sdksandbox/flags/FakeFeatureFlagsImpl.java,25,5,25,25,
Lcom/android/sdksandbox/flags/FakeFeatureFlagsImpl;->sandboxActivitySdkBasedContext()Z,out/soong/.intermediates/packages/modules/AdServices/sdksandbox/flags/sdk_sandbox_flags_lib/android_common_apex33/javac/srcjars/com/android/sdksandbox/flags/FakeFeatureFlagsImpl.java,31,5,31,25,
Lcom/android/sdksandbox/flags/FakeFeatureFlagsImpl;->sandboxClientImportanceListener()Z,out/soong/.intermediates/packages/modules/AdServices/sdksandbox/flags/sdk_sandbox_flags_lib/android_common_apex33/javac/srcjars/com/android/sdksandbox/flags/FakeFeatureFlagsImpl.java,37,5,37,25,
Lcom/android/sdksandbox/flags/FakeFeatureFlagsImpl;->sdkSandboxInstrumentationInfo()Z,out/soong/.intermediates/packages/modules/AdServices/sdksandbox/flags/sdk_sandbox_flags_lib/android_common_apex33/javac/srcjars/com/android/sdksandbox/flags/FakeFeatureFlagsImpl.java,43,5,43,25,
Lcom/android/sdksandbox/flags/FakeFeatureFlagsImpl;->sdkSandboxUidToAppUidApi()Z,out/soong/.intermediates/packages/modules/AdServices/sdksandbox/flags/sdk_sandbox_flags_lib/android_common_apex33/javac/srcjars/com/android/sdksandbox/flags/FakeFeatureFlagsImpl.java,49,5,49,25,
Lcom/android/sdksandbox/flags/FakeFeatureFlagsImpl;->selinuxSdkSandboxAudit()Z,out/soong/.intermediates/packages/modules/AdServices/sdksandbox/flags/sdk_sandbox_flags_lib/android_common_apex33/javac/srcjars/com/android/sdksandbox/flags/FakeFeatureFlagsImpl.java,55,5,55,25,
Lcom/android/sdksandbox/flags/FeatureFlags;->firstAndLastSdkSandboxUidPublic()Z,out/soong/.intermediates/packages/modules/AdServices/sdksandbox/flags/sdk_sandbox_flags_lib/android_common_apex33/javac/srcjars/com/android/sdksandbox/flags/FeatureFlags.java,9,5,9,25,
Lcom/android/sdksandbox/flags/FeatureFlags;->getEffectiveTargetSdkVersionApi()Z,out/soong/.intermediates/packages/modules/AdServices/sdksandbox/flags/sdk_sandbox_flags_lib/android_common_apex33/javac/srcjars/com/android/sdksandbox/flags/FeatureFlags.java,13,5,13,25,
Lcom/android/sdksandbox/flags/FeatureFlags;->sandboxActivitySdkBasedContext()Z,out/soong/.intermediates/packages/modules/AdServices/sdksandbox/flags/sdk_sandbox_flags_lib/android_common_apex33/javac/srcjars/com/android/sdksandbox/flags/FeatureFlags.java,17,5,17,25,
Lcom/android/sdksandbox/flags/FeatureFlags;->sandboxClientImportanceListener()Z,out/soong/.intermediates/packages/modules/AdServices/sdksandbox/flags/sdk_sandbox_flags_lib/android_common_apex33/javac/srcjars/com/android/sdksandbox/flags/FeatureFlags.java,21,5,21,25,
Lcom/android/sdksandbox/flags/FeatureFlags;->sdkSandboxInstrumentationInfo()Z,out/soong/.intermediates/packages/modules/AdServices/sdksandbox/flags/sdk_sandbox_flags_lib/android_common_apex33/javac/srcjars/com/android/sdksandbox/flags/FeatureFlags.java,25,5,25,25,
Lcom/android/sdksandbox/flags/FeatureFlags;->sdkSandboxUidToAppUidApi()Z,out/soong/.intermediates/packages/modules/AdServices/sdksandbox/flags/sdk_sandbox_flags_lib/android_common_apex33/javac/srcjars/com/android/sdksandbox/flags/FeatureFlags.java,29,5,29,25,
Lcom/android/sdksandbox/flags/FeatureFlags;->selinuxSdkSandboxAudit()Z,out/soong/.intermediates/packages/modules/AdServices/sdksandbox/flags/sdk_sandbox_flags_lib/android_common_apex33/javac/srcjars/com/android/sdksandbox/flags/FeatureFlags.java,33,5,33,25,
Lcom/android/sdksandbox/flags/FeatureFlagsImpl;->firstAndLastSdkSandboxUidPublic()Z,out/soong/.intermediates/packages/modules/AdServices/sdksandbox/flags/sdk_sandbox_flags_lib/android_common_apex33/javac/srcjars/com/android/sdksandbox/flags/FeatureFlagsImpl.java,7,5,7,25,
Lcom/android/sdksandbox/flags/FeatureFlagsImpl;->getEffectiveTargetSdkVersionApi()Z,out/soong/.intermediates/packages/modules/AdServices/sdksandbox/flags/sdk_sandbox_flags_lib/android_common_apex33/javac/srcjars/com/android/sdksandbox/flags/FeatureFlagsImpl.java,13,5,13,25,
Lcom/android/sdksandbox/flags/FeatureFlagsImpl;->sandboxActivitySdkBasedContext()Z,out/soong/.intermediates/packages/modules/AdServices/sdksandbox/flags/sdk_sandbox_flags_lib/android_common_apex33/javac/srcjars/com/android/sdksandbox/flags/FeatureFlagsImpl.java,19,5,19,25,
Lcom/android/sdksandbox/flags/FeatureFlagsImpl;->sandboxClientImportanceListener()Z,out/soong/.intermediates/packages/modules/AdServices/sdksandbox/flags/sdk_sandbox_flags_lib/android_common_apex33/javac/srcjars/com/android/sdksandbox/flags/FeatureFlagsImpl.java,25,5,25,25,
Lcom/android/sdksandbox/flags/FeatureFlagsImpl;->sdkSandboxInstrumentationInfo()Z,out/soong/.intermediates/packages/modules/AdServices/sdksandbox/flags/sdk_sandbox_flags_lib/android_common_apex33/javac/srcjars/com/android/sdksandbox/flags/FeatureFlagsImpl.java,31,5,31,25,
Lcom/android/sdksandbox/flags/FeatureFlagsImpl;->sdkSandboxUidToAppUidApi()Z,out/soong/.intermediates/packages/modules/AdServices/sdksandbox/flags/sdk_sandbox_flags_lib/android_common_apex33/javac/srcjars/com/android/sdksandbox/flags/FeatureFlagsImpl.java,37,5,37,25,
Lcom/android/sdksandbox/flags/FeatureFlagsImpl;->selinuxSdkSandboxAudit()Z,out/soong/.intermediates/packages/modules/AdServices/sdksandbox/flags/sdk_sandbox_flags_lib/android_common_apex33/javac/srcjars/com/android/sdksandbox/flags/FeatureFlagsImpl.java,43,5,43,25,
Lcom/android/sdksandbox/flags/Flags;->firstAndLastSdkSandboxUidPublic()Z,out/soong/.intermediates/packages/modules/AdServices/sdksandbox/flags/sdk_sandbox_flags_lib/android_common_apex33/javac/srcjars/com/android/sdksandbox/flags/Flags.java,24,5,24,25,
Lcom/android/sdksandbox/flags/Flags;->getEffectiveTargetSdkVersionApi()Z,out/soong/.intermediates/packages/modules/AdServices/sdksandbox/flags/sdk_sandbox_flags_lib/android_common_apex33/javac/srcjars/com/android/sdksandbox/flags/Flags.java,30,5,30,25,
Lcom/android/sdksandbox/flags/Flags;->sandboxActivitySdkBasedContext()Z,out/soong/.intermediates/packages/modules/AdServices/sdksandbox/flags/sdk_sandbox_flags_lib/android_common_apex33/javac/srcjars/com/android/sdksandbox/flags/Flags.java,36,5,36,25,
Lcom/android/sdksandbox/flags/Flags;->sandboxClientImportanceListener()Z,out/soong/.intermediates/packages/modules/AdServices/sdksandbox/flags/sdk_sandbox_flags_lib/android_common_apex33/javac/srcjars/com/android/sdksandbox/flags/Flags.java,42,5,42,25,
Lcom/android/sdksandbox/flags/Flags;->sdkSandboxInstrumentationInfo()Z,out/soong/.intermediates/packages/modules/AdServices/sdksandbox/flags/sdk_sandbox_flags_lib/android_common_apex33/javac/srcjars/com/android/sdksandbox/flags/Flags.java,48,5,48,25,
Lcom/android/sdksandbox/flags/Flags;->sdkSandboxUidToAppUidApi()Z,out/soong/.intermediates/packages/modules/AdServices/sdksandbox/flags/sdk_sandbox_flags_lib/android_common_apex33/javac/srcjars/com/android/sdksandbox/flags/Flags.java,54,5,54,25,
Lcom/android/sdksandbox/flags/Flags;->selinuxSdkSandboxAudit()Z,out/soong/.intermediates/packages/modules/AdServices/sdksandbox/flags/sdk_sandbox_flags_lib/android_common_apex33/javac/srcjars/com/android/sdksandbox/flags/Flags.java,60,5,60,25,
